{
    "type": "curse",
    "common": {
        "dependencies": {
            "charset-lib": "REQUIRED"
        }
    },
    "projectID": 284530,
    "fileID": 2744996,
    "skipFingerprintCheck": true
}